; U+E000..U+E07F Tengwar
E02F
E033
E03E E03F
E05B E05F
E06D E06F
E07E E07F
; U+E080..U+E0FF Cirth
E0ED E0FF
; U+E100..U+E14F Engsvanyáli
E12F
E139 E13F
E14F
; U+E150..U+E1AF Kinya
E16F
E18F
E19D E19F
E1AC E1AF
; U+E1B0..U+E1CF Ilianore
; U+E1D0..U+E1FF Syai (moved from CSUR chart)
E1FE E1FF
; U+E200..U+E26F Verdurian
E226 E22A
E26C E26D
; U+E280..U+E29F aUI
E28F
; U+E2A0..U+E2CF Amman-iar
E296
E297
E29B
E2A2
E2A3
E2A6
E2A7
E2AB E2AE
E2BB E2BE
; U+E2C0..U+E2CF Streich
E2CA E2CF
; U+E2D0..U+E2FF Xaîni
E2FC E2FF
; U+E300..U+E33F Mizarian
E333 E33F
; U+E340..U+E35F Zírí:nka
E35C E35F
; U+E360..U+E37F Sarkai
E375 E37F
; U+E380..U+E3AF Thelwik
E3A4 E3AF
; U+E3B0..U+E3FF Olaetyan
E3FD E3FF
; U+E400..U+E42F Nísklôz
E424 E42F
; U+E430..U+E44F Kazat ?Akkorou
; U+E450..U+E46F Kazvarad
E464 E46F
; U+E470..U+E48F Zarkhánd
E48C E48F
; U+E490..U+E4BF Røzhxh
E4B5 E4BF
; U+E4C0..U+E4EF Serivelna
E4E9 E4EF
; U+E4F0..U+E4FF Kelwathi
; U+E500..U+E51F Saklor
E51C E51F
; U+E520..U+E54F Rynnan
E549 E54F
; U+E550..U+E57F Alzetjan
E573 E57F
; U+E580..U+E59F Telarasso
E594 E59F
; U+E5A0..U+E5BF Ssûraki
E5BD E5BF
; U+E5C0..U+E5DF Gargoyle
; U+E5FA..U+E5FF Ophidian
E5FA E5FF
; U+E600..U+E62F Ferengi
; U+E630..U+E64F Seussian Latin Extensions
E644 E64F
; U+E650..U+E67F Sylabica
E679 E67F
; U+E680..U+E6CF Ewellic
E680 E683
E686
E688 E68D
E6AC E6AE
; U+E6D0..U+E6EF Amlin (no data)
; U+E6F0..U+E6FF Unifon Extended
E6FD
; U+E700..U+E73F Unifon
E728 E72B
E73D
E768 E76B
; U+E770..U+E77F Solresol
E777 E77F
; U+E780..U+E7FF Visible Speech
E7F8 E7FF
; U+E800..U+E82F Monofon
E82A E82F
; U+E830..U+E88F D'ni
E853 E856
E85A E85F
E87A E87B
E87E E87F
E886 E887
E88A E88F
; U+E890..U+E8DF Aurebesh
E8B2 E8BF
E8CF
E8DA E8DF
; U+E9D0..U+E9EF Tonal
E8F5 E8FF
; U+E900..U+E97F Glaitha-A
E90A E90F
; U+E980..U+E9FF Glaitha-B
; U+EA00..U+EA9F Lhenazi
EA08
EA0D
EA12
EA17
EA1C
EA21
EA26
EA2B
EA30
EA35
EA3A
EA6D EA75
EA7A EA9F
; U+EAA0..U+EAFF Wanya
EAF2 EAFF
; U+EB00..U+EB3F Orokin
EB17 EB1F
EB2B EB2F
EB3D EB3F
; U+EB40..U+EB5F Standard Galactic
EB5A EB5C
; U+EB60..U+EB9F Braille Extended
EB9D EB9F
; U+EBA0..U+EBDF Cistercian Numerals
EBAA EBB0
EBBA EBC0
EBCA EBD0
EBDA EBDF
; U+EBE0..U+ECFF Unassigned
; U+ED00..U+ED3F Deini
ED31 ED36
; U+ED40..U+ED7F Niji
ED4B
ED51
ED5C ED5E
ED60 ED7F
; U+ED80..U+EF7F Unassigned
; U+EF80..U+EFFF Reserved for encoding hacks
; U+F000..U+F7FF Reserved for font hacks
; U+F4C0..U+F4EF Ath
F4CA F4CF
F4EC F4EF
; U+F800..U+F89F Reserved for Apple hacks
; U+F8A0..U+F8CF Aiha
F8C9 F8CF
; U+F8D0..U+F8FF Klingon
F8EA F8EF
F8FA F8FC
